<?xml version="1.0" encoding="UTF-8"?>
<session version="1.0">
<refactoring comment="Move &apos;home.jsp&apos; to &apos;pages&apos;" description="Move &apos;home.jsp&apos; to &apos;pages&apos;" destination="src/main/webapp/pages" element1="src/main/webapp/home.jsp" flags="7" id="org.eclipse.ltk.core.refactoring.move.resources" resources="1" stamp="1673599089048" updateReferences="true"/>
</session>