<?xml version="1.0" encoding="UTF-8"?>
<session version="1.0">
<refactoring accessors="true" comment="Delete element from project &apos;springboot-first-app&apos;&#x0D;&#x0A;- Original project: &apos;springboot-first-app&apos;&#x0D;&#x0A;- Original element: &apos;HomeController.java&apos;" description="Delete element" element1="src/main/java/com/springboot/app/HomeController.java" elements="0" flags="589830" id="org.eclipse.jdt.ui.delete" resources="1" stamp="1674665355249" subPackages="false" version="1.0"/>
</session>