INDEX VERSION 1.131+C:\Users\hnjoshi\Desktop\spring\MyWebApp\.metadata\.plugins\org.eclipse.jdt.core
1151369423.index
758546221.index
1931074414.index
2094284684.index
1582931092.index
3403058925.index
622637240.index
835866863.index
1634737196.index
821293933.index
2317511241.index
938606349.index
3863915038.index
3994352510.index
3142639420.index
1527082558.index
1844601037.index
2603341055.index
561018901.index
1935430500.index
3507693094.index
3562286131.index
1281751651.index
3972838271.index
4268419111.index
3186115380.index
989862409.index
705491006.index
2880471504.index
2597002366.index
3694536223.index
3624386997.index
3522940222.index
1607647828.index
1833407488.index
54425034.index
3790304345.index
3109984915.index
3863680838.index
2346848394.index
1393177054.index
283150460.index
1723845541.index
113082978.index
1535482452.index
3886982927.index
524053363.index
3991849996.index
4144549966.index
1885360795.index
1827690821.index
693540949.index
235718582.index
1931157995.index
3937935336.index
2588012591.index
2741160767.index
3124993428.index
3816284558.index
1498878870.index
2866022273.index
1695649647.index
2142699501.index
617018975.index
2779844397.index
1429208587.index
2095493382.index
1850678731.index
1484722655.index
504607470.index
1278379306.index
3596209710.index
169199994.index
403767349.index
4212021311.index
3614865756.index
1564585247.index
2597848342.index
440043430.index
3655034869.index
388195862.index
2964293369.index
4131077510.index
3664807119.index
2433113999.index
271879809.index
174523856.index
2975044461.index
2964495950.index
2574166894.index
2480296182.index
4133612823.index
3735504418.index
3887414615.index
3560832847.index
2403611088.index
1740023650.index
2848646076.index
730204793.index
1847430256.index
1531074854.index
2062129659.index
3284896401.index
3747091942.index
3038032510.index
3609044444.index
1879173861.index
4213967517.index
3180714076.index
4191832823.index
2752440926.index
730910754.index
1536403770.index
2313893135.index
401879036.index
1899748118.index
1042837202.index
1513825671.index
1865797976.index
969968605.index
330297243.index
978502417.index
2785773578.index
3268847289.index
1530144794.index
1745104479.index
2601107453.index
177551023.index
3304787941.index
3464239685.index
3236253185.index
1577641540.index
2642023280.index
3211614224.index
2441589015.index
2758424502.index
3459537277.index
3423624382.index
782981571.index
4027161254.index
2509101850.index
2209871503.index
708149649.index
3540919027.index
665822599.index
1983218011.index
1740456773.index
2047582127.index
1115185613.index
1754482917.index
634026596.index
3984465219.index
4148693496.index
2711955378.index
1355667947.index
2458685723.index
2177418918.index
2161999612.index
4191438407.index
1278237654.index
3907025612.index
614576528.index
1286251598.index
3586999231.index
2538935469.index
2885100904.index
815833776.index
3863627437.index
3655123410.index
970787942.index
1189096978.index
1591270848.index
3353798732.index
846406770.index
3871692827.index
1718828802.index
